Reconstrucción de variables
…
De manera general, la reconstrucción realizada concuerda en la mayoría de los casos; hay algunos donde la clasificación propuesta difiere a la precodificada, esto puede ser por el redondeo.

Sin embargo hay un caso donde la diferencia es grande, el individuo está precodificado con 5 (Más de un año) y el proceso lo establece con 2 (Más de 1 mes y menor a 3).

dur %>% 
  left_join(sdem, by = coe_id) %>%
  select(p2a_dia:p2a_anio, d_dia:d_mes, dias_trans, dur_des, dur_des2) %>% 
  filter(dur_des != dur_des2)

# # A tibble: 130 x 9
#    p2a_dia p2a_sem p2a_mes p2a_anio d_dia d_mes dias_trans dur_des dur_des2
#      <dbl>   <dbl>   <dbl>    <dbl> <dbl> <dbl>      <dbl>   <int>    <dbl>
#  1      99       4       6     2020    25     7         31       1        2
#  2      15      NA       6     2020    30     7         45       1        2
#  3      99       2       6     2020    30     7         50       1        2
#  4      15      NA       6     2020    30     7         45       1        2
#  5      20      NA       6     2020    30     7         40       1        2
#  6      15      NA       6     2020    30     7         45       1        2
#  7      15      NA       6     2020    29     7         44       1        2
#  8       1      NA       6     2020    30     7         59       1        2
#  9      99       2       4     2020    10     7         91       2        3
# 10       1      NA       6     2020    22     7         51       5        2
# # ... with 120 more rows
…
